Mini-Project 01
…
## See spec(...) for full column specifications.

WC_Matches

## # A tibble: 4,572 x 20
##     Year Datetime Stage Stadium City  `Home Team Name` `Home Team Goal
##    <dbl> <chr>    <chr> <chr>   <chr> <chr>                       <dbl>
##  1  1930 13 Jul  Grou Pocitos Mont France                          4
##  2  1930 13 Jul  Grou Parque Mont USA                             3
##  3  1930 14 Jul  Grou Parque Mont Yugoslavia                      2
##  4  1930 14 Jul  Grou Pocitos Mont Romania                         3
##  5  1930 15 Jul  Grou Parque Mont Argentina                       1
##  6  1930 16 Jul  Grou Parque Mont Chile                           3
##  7  1930 17 Jul  Grou Parque Mont Yugoslavia                      4
##  8  1930 17 Jul  Grou Parque Mont USA                             3
##  9  1930 18 Jul  Grou Estadi Mont Uruguay                         1
## 10  1930 19 Jul  Grou Estadi Mont Chile                           1
## #  with 4,562 more rows, and 13 more variables: `Away Team Goals` <dbl>, `Away
## #   Team Name` <chr>, `Win conditions` <chr>, Attendance <dbl>, `Half-time Home
## #   Goals` <dbl>, `Half-time Away Goals` <dbl>, Referee <chr>, `Assistant
## #   1` <chr>, `Assistant 2` <chr>, RoundID <dbl>, MatchID <dbl>, `Home Team
## #   Initials` <chr>, `Away Team Initials` <chr>

#check for duplicates and subset only distinct rows
WC_Matches_distinct<-WC_Matches%>%distinct()
WC_Matches_distinct

## # A tibble: 837 x 20
##     Year Datetime Stage Stadium City  `Home Team Name` `Home Team Goal
##    <dbl> <chr>    <chr> <chr>   <chr> <chr>                       <dbl>
##  1  1930 13 Jul  Grou Pocitos Mont France                          4
##  2  1930 13 Jul  Grou Parque Mont USA                             3
##  3  1930 14 Jul  Grou Parque Mont Yugoslavia                      2
##  4  1930 14 Jul  Grou Pocitos Mont Romania                         3
##  5  1930 15 Jul  Grou Parque Mont Argentina                       1
##  6  1930 16 Jul  Grou Parque Mont Chile                           3
##  7  1930 17 Jul  Grou Parque Mont Yugoslavia                      4
##  8  1930 17 Jul  Grou Parque Mont USA                             3
##  9  1930 18 Jul  Grou Estadi Mont Uruguay                         1
## 10  1930 19 Jul  Grou Estadi Mont Chile                           1
## #  with 827 more rows, and 13 more variables: `Away Team Goals` <dbl>, `Away
## #   Team Name` <chr>, `Win conditions` <chr>, Attendance <dbl>, `Half-time Home
## #   Goals` <dbl>, `Half-time Away Goals` <dbl>, Referee <chr>, `Assistant
## #   1` <chr>, `Assistant 2` <chr>, RoundID <dbl>, MatchID <dbl>, `Home Team
## #   Initials` <chr>, `Away Team Initials` <chr>
…
